A Simple Football Betting Model
…
As we can see, our two predictive variables are
roll_xg_points_home and roll_xg_points_away.
The magnitude of each of these variables should indicate the ability of
the side in question, and the _home and _away suffixes should allow
our model to take home-advantage into account too.

football_xg_data %>% 
   select(date:outcome, starts_with("roll_"))

## # A tibble: 2,308 x 7
##    date       season home_team      away_team   outcome roll_xg_points_home
##    <date>      <int> <chr>          <chr>       <fct>                 <dbl>
##  1 2014-09-27   2015 Arsenal        Tottenham   D                      1.99
##  2 2014-09-27   2015 Chelsea        Aston Villa H                      2.09
##  3 2014-09-27   2015 Crystal Palace Leicester   H                      1.01
##  4 2014-09-27   2015 Hull           Man City    A                      1.04
##  5 2014-09-27   2015 Liverpool      Everton     D                      1.48
##  6 2014-09-27   2015 Man United     West Ham    H                      1.84
##  7 2014-09-27   2015 Southampton    QPR         H                      1.79
##  8 2014-09-27   2015 Sunderland     Swansea     D                      1.10
##  9 2014-09-28   2015 West Brom      Burnley     H                      1.51
## 10 2014-09-29   2015 Stoke          Newcastle   H                      1.52
## # ... with 2,298 more rows, and 1 more variable: roll_xg_points_away <dbl>
…
